{
	"info": {
		"_postman_id": "a56cf1c6-1538-4cb0-81eb-a58a706de550",
		"name": "DDB Broker",
		"schema": "https://schema.getpostman.com/json/collection/v2.1.0/collection.json"
	},
	"item": [
		{
			"name": "echo",
			"request": {
				"method": "POST",
				"header": [
					{
						"key": "Content-Type",
						"name": "Content-Type",
						"value": "application/json",
						"type": "text"
					}
				],
				"body": {
					"mode": "raw",
					"raw": "{\n    \"operation\": \"echo\",\n    \"payload\": {\n        \"somekey1\": \"somevalue1\",\n        \"somekey2\": \"somevalue2\"\n    }\n}"
				},
				"url": {
					"raw": "https://xczcpx7zl8.execute-api.us-east-1.amazonaws.com/Prod/DDBBroker",
					"protocol": "https",
					"host": [
						"xczcpx7zl8",
						"execute-api",
						"us-east-1",
						"amazonaws",
						"com"
					],
					"path": [
						"Prod",
						"DDBBroker"
					]
				}
			},
			"response": []
		},
		{
			"name": "create",
			"request": {
				"method": "POST",
				"header": [
					{
						"key": "Content-Type",
						"name": "Content-Type",
						"value": "application/json",
						"type": "text"
					}
				],
				"body": {
					"mode": "raw",
					"raw": "{\n    \"operation\": \"create\",\n    \"payload\": {\n        \"Item\": {\n            \"id\": \"3\",\n            \"name\": \"Jeff\"\n        }\n    }\n}\n"
				},
				"url": {
					"raw": "https://xczcpx7zl8.execute-api.us-east-1.amazonaws.com/Prod/DDBBroker",
					"protocol": "https",
					"host": [
						"xczcpx7zl8",
						"execute-api",
						"us-east-1",
						"amazonaws",
						"com"
					],
					"path": [
						"Prod",
						"DDBBroker"
					]
				}
			},
			"response": []
		},
		{
			"name": "create2",
			"request": {
				"method": "POST",
				"header": [
					{
						"key": "Content-Type",
						"name": "Content-Type",
						"value": "application/json",
						"type": "text"
					}
				],
				"body": {
					"mode": "raw",
					"raw": "{\n    \"operation\": \"create\",\n    \"payload\": {\n        \"Item\": {\n            \"id\": \"10\",\n            \"itemName\": \"American Eagle 556 XM193\",\n            \"category\": \"Firearms\",\n            \"subcategory\": \"Ammunition\",\n            \"notes\": \"Here is an item level note.\",\n            \"units\": [\n                {\n                    \"location\": \"Basement shelf\",\n                    \"unitOfMeasure\": \"round\",\n                    \"unitCount\": 500,\n                    \"costDollars\": 100,\n                    \"purchasedDate\": \"2014-06-25T00:00:00.000Z\",\n                    \"notes\": \"Here is a note.\"\n                },\n                {\n                    \"location\": \"Basement shelf\",\n                    \"unitOfMeasure\": \"round\",\n                    \"unitCount\": 500,\n                    \"costDollars\": 100,\n                    \"purchasedDate\": \"2014-06-25T00:00:00.000Z\",\n                    \"notes\": \"Here is a note.\"\n                },\n                {\n                    \"location\": \"Basement shelf\",\n                    \"unitOfMeasure\": \"round\",\n                    \"unitCount\": 500,\n                    \"costDollars\": 100,\n                    \"purchasedDate\": \"2014-06-25T00:00:00.000Z\",\n                    \"notes\": \"Here is a note.\"\n                }\n            ]\n        }\n    }\n}"
				},
				"url": {
					"raw": "https://xczcpx7zl8.execute-api.us-east-1.amazonaws.com/Prod/DDBBroker",
					"protocol": "https",
					"host": [
						"xczcpx7zl8",
						"execute-api",
						"us-east-1",
						"amazonaws",
						"com"
					],
					"path": [
						"Prod",
						"DDBBroker"
					]
				}
			},
			"response": []
		}
	]
}